<?xml version="1.0" standalone="no"?>
<!DOCTYPE svg PUBLIC "-//W3C//DTD SVG 1.1//EN" "http://www.w3.org/Graphics/SVG/1.1/DTD/svg11.dtd">
<svg xmlns="http://www.w3.org/2000/svg">
<metadata>Generated by Fontastic.me</metadata>
<defs>
<font id="ekouniversal" horiz-adv-x="512">
<font-face font-family="ekouniversal" units-per-em="512" ascent="480" descent="-32"/>
<missing-glyph horiz-adv-x="512" />

<glyph glyph-name="calc" unicode="&#97;" d="M405 512l-298 0c-18 0-33-14-33-33l0-446c0-19 15-33 33-33l298 0c18 0 33 14 33 33l0 446c0 19-13 33-33 33z m0-490l-298 0c-6 0-10 5-10 11l0 446c0 6 4 13 10 13l298 0c6 0 10-4 10-11l0-446c0-6-2-13-10-13z m-12 445c-4 2-6 4-8 4l-258 0c0-2-4-2-6-4-2-2-4-6-4-8l0-106c0-2 2-6 4-8 2-2 4-2 6-2l255 0c3 0 7 2 9 4 2 2 6 4 6 8l0 104c-2 2-2 6-4 8z m-253-18l234 0 0-86-234 0z m191-33l0-20c0-6 5-10 11-10 6 0 10 4 10 10l0 20c0 6-4 10-10 10-6 0-11-4-11-10m-181-159l20 0c6 0 11 4 11 10 0 6-5 10-11 10l-20 0c-6 0-10-4-10-10 0-6 4-10 10-10m63 0l21 0c6 0 10 4 10 10 0 6-4 10-10 10l-21 0c-6 0-10-4-10-10 0-6 6-10 10-10m63 0l21 0c6 0 10 4 10 10 0 6-4 10-10 10l-21 0c-6 0-10-4-10-10 0-6 4-10 10-10m68 0l20 0c6 0 10 4 10 10 0 6-4 10-10 10l-20 0c-6 0-10-4-10-10 0-6 2-10 10-10m-194-63l20 0c6 0 11 4 11 10 0 6-5 10-11 10l-20 0c-6 0-10-4-10-10 0-6 4-10 10-10m63 0l21 0c6 0 10 4 10 10 0 6-4 10-10 10l-21 0c-6 0-10-4-10-10 0-6 6-10 10-10m63 0l21 0c6 0 10 4 10 10 0 6-4 10-10 10l-21 0c-6 0-10-4-10-10 0-6 4-10 10-10m68 0l20 0c6 0 10 4 10 10 0 6-4 10-10 10l-20 0c-6 0-10-4-10-10 0-6 2-10 10-10m-194-65l20 0c6 0 11 4 11 10 0 6-5 10-11 10l-20 0c-6 0-10-4-10-10 0-4 4-10 10-10m63 0l21 0c6 0 10 4 10 10 0 6-4 10-10 10l-21 0c-6 0-10-4-10-10 0-4 6-10 10-10m63 0l21 0c6 0 10 4 10 10 0 6-4 10-10 10l-21 0c-6 0-10-4-10-10 0-4 4-10 10-10m68 0l20 0c6 0 10 4 10 10 0 6-4 10-10 10l-20 0c-6 0-10-4-10-10-3-4 2-10 10-10m-194-64l20 0c6 0 11 4 11 10 0 7-5 11-11 11l-20 0c-6 0-10-4-10-11 0-6 4-10 10-10m63 0l21 0c6 0 10 4 10 10 0 7-4 11-10 11l-21 0c-6 0-10-4-10-11 0-6 6-10 10-10m63 0l86 0c6 0 10 4 10 10 0 7-4 11-10 11l-86 0c-6 0-10-4-10-11 0-6 4-10 10-10"/>
<glyph glyph-name="call" unicode="&#98;" d="M340 5c-33 0-69 13-110 39l-7 2c-21 13-69 41-108 79-46 49-77 111-82 123-25 72-25 133-2 159 10 10 13 15 18 21 5 7 12 15 25 30 5 5 10 8 18 8 33 0 77-56 95-95 13-33 8-48 0-56-10-10-13-13-15-15-3-3-6-6-11-11-7-7-7-20-7-28l102-105c3 0 5 0 8 0 7 0 15 3 18 5 15 11 18 13 30 23 5 5 13 8 23 8 39 0 103-49 118-84 8-21 0-34-8-39-20-18-28-23-35-31-6-5-11-7-21-18-10-10-28-15-49-15z m-248 435c-13-12-18-18-23-25-5-8-10-16-20-26-16-15-16-64 7-130 3-11 36-70 77-116 36-35 82-64 103-74l7-5c36-20 69-33 97-33 13 0 26 2 34 10 10 8 15 13 20 18 8 5 16 13 36 28 0 0 3 3 0 10-10 28-66 69-95 69-2 0-5 0-5-2-13-10-18-13-33-26-8-5-21-10-33-10-8 0-16 3-16 3-2 0-5 2-7 2l-108 113c-2 2-2 5-2 7 0 3-6 34 12 54 5 8 8 8 11 10 2 3 5 6 12 13 3 3 3 13-5 31-15 38-56 79-69 79z m305 54c0 3 0 3 0 5 0 3-3 5-8 8-2 0-2 0-5 0l-87 0c-8 0-13-5-13-13 0-8 8-13 16-13l56 0-118-115c-5-5-5-13 0-18 3-2 5-5 8-5 2 0 7 0 10 3l115 117 0-53c0-8 5-13 13-13 8 0 13 7 13 13z m97-87c-5 5-13 5-18 0l-115-113 0 54c0 8-5 13-13 13-8 0-13-5-13-13l0-84c0 0 0 0 0-3 0 0 0-2 0-2 0-3 3-3 3-3 0 0 2-3 5-3 3 0 3 0 5 0l87 0c8 0 13 6 13 13 0 8-5 10-13 10l-56 0 115 113c5 5 5 13 0 18z"/>
<glyph glyph-name="envelope" unicode="&#99;" d="M0 451l0-390 512 0 0 392-512 0z m473-25l-217-225-217 225z m14-340l-462 0 0 322 231-244 231 244z"/>
<glyph glyph-name="marker" unicode="&#100;" d="M256 3c-4 0-6 2-10 4-8 8-164 215-164 328 0 97 77 174 174 174 97 0 174-77 174-174 0-115-158-320-164-328-4-2-8-4-10-4z m0 482c-83 0-150-69-150-150 0-91 116-255 150-302 32 47 150 211 150 302-2 83-69 150-150 150z m0-217c-38 0-69 31-69 69 0 38 31 69 69 69 38 0 69-31 69-69 0-38-33-69-69-69z m0 111c-24 0-45-18-45-44 0-26 19-45 45-45 24 0 45 19 45 45 0 26-23 44-45 44z"/>
<glyph glyph-name="carret" unicode="&#101;" d="M255 92l-255 257 71 71 184-185 185 185 72-71z"/>
<glyph glyph-name="close" unicode="&#102;" d="M506 36l-220 220 220 220c8 8 8 21 0 30-9 8-22 8-30 0l-220-220-220 220c-8 8-21 8-30 0-8-9-8-22 0-30l220-220-220-220c-8-8-8-21 0-30 5-4 9-6 15-6 7 0 11 2 15 6l220 220 220-220c4-4 10-6 15-6 4 0 10 2 15 6 8 9 8 22 0 30z"/>
<glyph glyph-name="angle-left" unicode="&#103;" d="M344 357c0-3-1-5-3-7l-112-112 112-113c2-1 3-4 3-6 0-3-1-5-3-7l-14-14c-2-2-5-3-7-3-2 0-5 1-7 3l-133 133c-2 2-3 4-3 7 0 2 1 4 3 6l133 133c2 2 5 3 7 3 2 0 5-1 7-3l14-14c2-2 3-4 3-6z"/>
<glyph glyph-name="angle-right" unicode="&#104;" d="M335 238c0-3-1-5-3-7l-133-133c-2-2-5-3-7-3-2 0-5 1-7 3l-14 14c-2 2-3 4-3 7 0 2 1 5 3 6l112 113-112 112c-2 2-3 4-3 7 0 2 1 4 3 6l14 14c2 2 5 3 7 3 2 0 5-1 7-3l133-133c2-2 3-4 3-6z"/>
<glyph glyph-name="slider-left" unicode="&#105;" d="M306 508l-113-246c-1-3 0-8 4-9 3-2 7 0 9 3l113 246c1 4 0 8-4 9-3 2-7 0-9-3z m-113-258l112-246c2-3 6-5 10-3 3 2 5 5 3 9l-112 246c-2 4-7 5-10 3-3-1-5-5-3-9z"/>
<glyph glyph-name="slider-right" unicode="&#106;" d="M206 4l113 246c1 4 0 8-4 9-3 2-7 0-9-3l-113-246c-1-4 0-8 4-9 3-2 7 0 9 3z m113 258l-112 246c-2 3-6 5-10 3-3-2-5-5-3-9l112-246c2-4 7-5 9-3 4 1 5 5 4 9z"/>
</font></defs></svg>
